[gd_resource type="TileSet" load_steps=7 format=2]

[ext_resource path="res://art/environment/junglegroundbrown200.png" type="Texture" id=1]
[ext_resource path="res://art/environment/junglegroundbrown201.png" type="Texture" id=2]
[ext_resource path="res://art/environment/junglegroundbrown203.png" type="Texture" id=3]

[sub_resource type="ConvexPolygonShape2D" id=1]

custom_solver_bias = 0.0
points = PoolVector2Array( 16, -16, 16, -11, -16, -11, -16, -16 )

[sub_resource type="ConvexPolygonShape2D" id=2]

custom_solver_bias = 0.0
points = PoolVector2Array( 16, -16, 16, -11, -15, -11, -15, -16 )

[sub_resource type="ConvexPolygonShape2D" id=3]

custom_solver_bias = 0.0
points = PoolVector2Array( 15, -16, 15, -11, -16, -11, -16, -16 )

[resource]

0/name = "DirtPlatMid"
0/texture = ExtResource( 1 )
0/tex_offset = Vector2( 0, 0 )
0/modulate = Color( 1, 1, 1, 1 )
0/region = Rect2( 0, 0, 32, 32 )
0/is_autotile = false
0/occluder_offset = Vector2( 16, 16 )
0/navigation_offset = Vector2( 16, 16 )
0/shapes = [ {
"autotile_coord": Vector2( 0, 0 ),
"one_way": true,
"shape": SubResource( 1 ),
"shape_transform": Transform2D( 1, 0, 0, 1, 16, 16 )
} ]
1/name = "DirtPlatEnd"
1/texture = ExtResource( 2 )
1/tex_offset = Vector2( 0, 0 )
1/modulate = Color( 1, 1, 1, 1 )
1/region = Rect2( 0, 0, 32, 32 )
1/is_autotile = false
1/occluder_offset = Vector2( 16, 16 )
1/navigation_offset = Vector2( 16, 16 )
1/shapes = [ {
"autotile_coord": Vector2( 0, 0 ),
"one_way": true,
"shape": SubResource( 2 ),
"shape_transform": Transform2D( 1, 0, 0, 1, 16, 16 )
} ]
2/name = "DirtPlatEnd2"
2/texture = ExtResource( 3 )
2/tex_offset = Vector2( 0, 0 )
2/modulate = Color( 1, 1, 1, 1 )
2/region = Rect2( 0, 0, 32, 32 )
2/is_autotile = false
2/occluder_offset = Vector2( 16, 16 )
2/navigation_offset = Vector2( 16, 16 )
2/shapes = [ {
"autotile_coord": Vector2( 0, 0 ),
"one_way": true,
"shape": SubResource( 3 ),
"shape_transform": Transform2D( 1, 0, 0, 1, 16, 16 )
} ]

