[gd_resource type="TileSet" load_steps=46 format=2]

[ext_resource path="res://art/environment/junglegroundbrown1.png" type="Texture" id=1]
[ext_resource path="res://art/environment/junglegroundbrown2.png" type="Texture" id=2]
[ext_resource path="res://art/environment/junglegroundbrown11.png" type="Texture" id=3]
[ext_resource path="res://art/environment/junglegroundbrown12.png" type="Texture" id=4]
[ext_resource path="res://art/environment/junglegroundbrown13.png" type="Texture" id=5]
[ext_resource path="res://art/environment/junglegroundbrown14.png" type="Texture" id=6]
[ext_resource path="res://art/environment/junglegroundbrown15.png" type="Texture" id=7]
[ext_resource path="res://art/environment/junglegroundbrown16.png" type="Texture" id=8]
[ext_resource path="res://art/environment/junglegroundbrown17.png" type="Texture" id=9]
[ext_resource path="res://art/environment/junglegroundbrown20.png" type="Texture" id=10]
[ext_resource path="res://art/environment/junglegroundbrown22.png" type="Texture" id=11]
[ext_resource path="res://art/environment/junglegroundbrown24.png" type="Texture" id=12]
[ext_resource path="res://art/environment/junglegroundbrown3.png" type="Texture" id=13]
[ext_resource path="res://art/environment/junglegroundbrown26.png" type="Texture" id=14]
[ext_resource path="res://art/environment/junglegroundbrown28.png" type="Texture" id=15]
[ext_resource path="res://art/environment/junglegroundbrown29.png" type="Texture" id=16]
[ext_resource path="res://art/environment/junglegroundbrown30.png" type="Texture" id=17]
[ext_resource path="res://art/environment/junglegroundbrown33.png" type="Texture" id=18]
[ext_resource path="res://art/environment/junglegroundbrown100.png" type="Texture" id=19]
[ext_resource path="res://art/environment/junglegroundbrown101.png" type="Texture" id=20]
[ext_resource path="res://art/environment/junglegroundbrown102.png" type="Texture" id=21]
[ext_resource path="res://art/environment/junglegroundbrown4.png" type="Texture" id=22]
[ext_resource path="res://art/environment/junglegroundbrown5.png" type="Texture" id=23]
[ext_resource path="res://art/environment/junglegroundbrown6.png" type="Texture" id=24]
[ext_resource path="res://art/environment/junglegroundbrown7.png" type="Texture" id=25]
[ext_resource path="res://art/environment/junglegroundbrown8.png" type="Texture" id=26]
[ext_resource path="res://art/environment/junglegroundbrown9.png" type="Texture" id=27]
[ext_resource path="res://art/environment/junglegroundbrown10.png" type="Texture" id=28]

[sub_resource type="ConvexPolygonShape2D" id=1]

custom_solver_bias = 0.0
points = PoolVector2Array( 16, -16, 16, 16, -16, 16, -16, -16 )

[sub_resource type="ConvexPolygonShape2D" id=2]

custom_solver_bias = 0.0
points = PoolVector2Array( 16, -16, 16, 16, -16, 16, -16, -16 )

[sub_resource type="ConvexPolygonShape2D" id=3]

custom_solver_bias = 0.0
points = PoolVector2Array( 16, -16, 16, 16, -16, 16, -16, -16 )

[sub_resource type="ConvexPolygonShape2D" id=4]

custom_solver_bias = 0.0
points = PoolVector2Array( 16, -16, 16, 16, -16, 16, -16, -16 )

[sub_resource type="ConvexPolygonShape2D" id=5]

custom_solver_bias = 0.0
points = PoolVector2Array( 16, -16, 16, 16, -16, 16, -16, -16 )

[sub_resource type="ConvexPolygonShape2D" id=6]

custom_solver_bias = 0.0
points = PoolVector2Array( -16, 12, -12, 16, -16, 16 )

[sub_resource type="ConvexPolygonShape2D" id=7]

custom_solver_bias = 0.0
points = PoolVector2Array( -16, 12, -8, 16, -16, 16 )

[sub_resource type="ConvexPolygonShape2D" id=8]

custom_solver_bias = 0.0
points = PoolVector2Array( -12, -16, 16, 12, 16, 16, -16, 16, -16, -16 )

[sub_resource type="ConvexPolygonShape2D" id=9]

custom_solver_bias = 0.0
points = PoolVector2Array( 16, -16, 16, 16, -16, 16, -16, -4, 8, -16 )

[sub_resource type="ConvexPolygonShape2D" id=10]

custom_solver_bias = 0.0
points = PoolVector2Array( 16, 12, 16, 16, -16, 16, -16, -4 )

[sub_resource type="ConvexPolygonShape2D" id=15]

custom_solver_bias = 0.0
points = PoolVector2Array( 16, -16, 16, 16, -16, 16, -16, -16 )

[sub_resource type="ConvexPolygonShape2D" id=16]

custom_solver_bias = 0.0
points = PoolVector2Array( 16, -16, 16, 16, -16, 16, -16, -16 )

[sub_resource type="ConvexPolygonShape2D" id=17]

custom_solver_bias = 0.0
points = PoolVector2Array( 16, -16, 16, 16, -16, 16, -16, -16 )

[sub_resource type="ConvexPolygonShape2D" id=11]

custom_solver_bias = 0.0
points = PoolVector2Array( 16, -16, 16, 16, -16, 16, -16, -16 )

[sub_resource type="ConvexPolygonShape2D" id=12]

custom_solver_bias = 0.0
points = PoolVector2Array( 16, -16, 16, 16, -16, 16, -16, -16 )

[sub_resource type="ConvexPolygonShape2D" id=13]

custom_solver_bias = 0.0
points = PoolVector2Array( 16, -16, 16, 16, -16, 16, -16, -16 )

[sub_resource type="ConvexPolygonShape2D" id=14]

custom_solver_bias = 0.0
points = PoolVector2Array( 16, -16, 16, 16, -16, 16, -16, -16 )

[resource]

0/name = "GrassTopEnd"
0/texture = ExtResource( 1 )
0/tex_offset = Vector2( 0, 0 )
0/modulate = Color( 1, 1, 1, 1 )
0/region = Rect2( 0, 0, 32, 32 )
0/is_autotile = false
0/occluder_offset = Vector2( 16, 16 )
0/navigation_offset = Vector2( 16, 16 )
0/shapes = [  ]
1/name = "GrassTopMid"
1/texture = ExtResource( 2 )
1/tex_offset = Vector2( 0, 0 )
1/modulate = Color( 1, 1, 1, 1 )
1/region = Rect2( 0, 0, 32, 32 )
1/is_autotile = false
1/occluder_offset = Vector2( 16, 16 )
1/navigation_offset = Vector2( 16, 16 )
1/shapes = [  ]
2/name = "GrassTopEnd2"
2/texture = ExtResource( 13 )
2/tex_offset = Vector2( 0, 0 )
2/modulate = Color( 1, 1, 1, 1 )
2/region = Rect2( 0, 0, 32, 32 )
2/is_autotile = false
2/occluder_offset = Vector2( 16, 16 )
2/navigation_offset = Vector2( 16, 16 )
2/shapes = [  ]
3/name = "DirtTopGrass"
3/texture = ExtResource( 22 )
3/tex_offset = Vector2( 0, 0 )
3/modulate = Color( 1, 1, 1, 1 )
3/region = Rect2( 0, 0, 32, 32 )
3/is_autotile = false
3/occluder_offset = Vector2( 16, 16 )
3/navigation_offset = Vector2( 16, 16 )
3/shapes = [  ]
4/name = "DirtTopGrass2"
4/texture = ExtResource( 23 )
4/tex_offset = Vector2( 0, 0 )
4/modulate = Color( 1, 1, 1, 1 )
4/region = Rect2( 0, 0, 32, 32 )
4/is_autotile = false
4/occluder_offset = Vector2( 16, 16 )
4/navigation_offset = Vector2( 16, 16 )
4/shapes = [  ]
5/name = "DirtTopGrass3"
5/texture = ExtResource( 24 )
5/tex_offset = Vector2( 0, 0 )
5/modulate = Color( 1, 1, 1, 1 )
5/region = Rect2( 0, 0, 32, 32 )
5/is_autotile = false
5/occluder_offset = Vector2( 16, 16 )
5/navigation_offset = Vector2( 16, 16 )
5/shapes = [  ]
6/name = "DirtGrassTile"
6/texture = ExtResource( 25 )
6/tex_offset = Vector2( 0, 0 )
6/modulate = Color( 1, 1, 1, 1 )
6/region = Rect2( 0, 0, 32, 32 )
6/is_autotile = false
6/occluder_offset = Vector2( 16, 16 )
6/navigation_offset = Vector2( 16, 16 )
6/shapes = [ {
"autotile_coord": Vector2( 0, 0 ),
"one_way": false,
"shape": SubResource( 11 ),
"shape_transform": Transform2D( 1, 0, 0, 1, 16, 16 )
} ]
7/name = "DirtGrassTile2"
7/texture = ExtResource( 26 )
7/tex_offset = Vector2( 0, 0 )
7/modulate = Color( 1, 1, 1, 1 )
7/region = Rect2( 0, 0, 32, 32 )
7/is_autotile = false
7/occluder_offset = Vector2( 16, 16 )
7/navigation_offset = Vector2( 16, 16 )
7/shapes = [ {
"autotile_coord": Vector2( 0, 0 ),
"one_way": false,
"shape": SubResource( 12 ),
"shape_transform": Transform2D( 1, 0, 0, 1, 16, 16 )
} ]
8/name = "DirtGrassTile3"
8/texture = ExtResource( 27 )
8/tex_offset = Vector2( 0, 0 )
8/modulate = Color( 1, 1, 1, 1 )
8/region = Rect2( 0, 0, 32, 32 )
8/is_autotile = false
8/occluder_offset = Vector2( 16, 16 )
8/navigation_offset = Vector2( 16, 16 )
8/shapes = [ {
"autotile_coord": Vector2( 0, 0 ),
"one_way": false,
"shape": SubResource( 13 ),
"shape_transform": Transform2D( 1, 0, 0, 1, 16, 16 )
} ]
9/name = "GrassTileEnd"
9/texture = ExtResource( 28 )
9/tex_offset = Vector2( 0, 0 )
9/modulate = Color( 1, 1, 1, 1 )
9/region = Rect2( 0, 0, 32, 32 )
9/is_autotile = false
9/occluder_offset = Vector2( 16, 16 )
9/navigation_offset = Vector2( 16, 16 )
9/shapes = [ {
"autotile_coord": Vector2( 0, 0 ),
"one_way": false,
"shape": SubResource( 14 ),
"shape_transform": Transform2D( 1, 0, 0, 1, 16, 16 )
} ]
10/name = "GrassTileMid"
10/texture = ExtResource( 3 )
10/tex_offset = Vector2( 0, 0 )
10/modulate = Color( 1, 1, 1, 1 )
10/region = Rect2( 0, 0, 32, 32 )
10/is_autotile = false
10/occluder_offset = Vector2( 16, 16 )
10/navigation_offset = Vector2( 16, 16 )
10/shapes = [ {
"autotile_coord": Vector2( 0, 0 ),
"one_way": false,
"shape": SubResource( 1 ),
"shape_transform": Transform2D( 1, 0, 0, 1, 16, 16 )
} ]
11/name = "GrassTileEndVine"
11/texture = ExtResource( 4 )
11/tex_offset = Vector2( 0, 0 )
11/modulate = Color( 1, 1, 1, 1 )
11/region = Rect2( 0, 0, 32, 32 )
11/is_autotile = false
11/occluder_offset = Vector2( 16, 16 )
11/navigation_offset = Vector2( 16, 16 )
11/shapes = [ {
"autotile_coord": Vector2( 0, 0 ),
"one_way": false,
"shape": SubResource( 2 ),
"shape_transform": Transform2D( 1, 0, 0, 1, 16, 16 )
} ]
12/name = "DirtTileEnd"
12/texture = ExtResource( 5 )
12/tex_offset = Vector2( 0, 0 )
12/modulate = Color( 1, 1, 1, 1 )
12/region = Rect2( 0, 0, 32, 32 )
12/is_autotile = false
12/occluder_offset = Vector2( 16, 16 )
12/navigation_offset = Vector2( 16, 16 )
12/shapes = [ {
"autotile_coord": Vector2( 0, 0 ),
"one_way": false,
"shape": SubResource( 3 ),
"shape_transform": Transform2D( 1, 0, 0, 1, 16, 16 )
} ]
13/name = "DirtTileMid"
13/texture = ExtResource( 6 )
13/tex_offset = Vector2( 0, 0 )
13/modulate = Color( 1, 1, 1, 1 )
13/region = Rect2( 0, 0, 32, 32 )
13/is_autotile = false
13/occluder_offset = Vector2( 16, 16 )
13/navigation_offset = Vector2( 16, 16 )
13/shapes = [ {
"autotile_coord": Vector2( 0, 0 ),
"one_way": false,
"shape": SubResource( 4 ),
"shape_transform": Transform2D( 1, 0, 0, 1, 16, 16 )
} ]
14/name = "DirtTileEnd2"
14/texture = ExtResource( 7 )
14/tex_offset = Vector2( 0, 0 )
14/modulate = Color( 1, 1, 1, 1 )
14/region = Rect2( 0, 0, 32, 32 )
14/is_autotile = false
14/occluder_offset = Vector2( 16, 16 )
14/navigation_offset = Vector2( 16, 16 )
14/shapes = [ {
"autotile_coord": Vector2( 0, 0 ),
"one_way": false,
"shape": SubResource( 5 ),
"shape_transform": Transform2D( 1, 0, 0, 1, 16, 16 )
} ]
15/name = "DirtTopEnd"
15/texture = ExtResource( 8 )
15/tex_offset = Vector2( 0, 0 )
15/modulate = Color( 1, 1, 1, 1 )
15/region = Rect2( 0, 0, 32, 32 )
15/is_autotile = false
15/occluder_offset = Vector2( 16, 16 )
15/navigation_offset = Vector2( 16, 16 )
15/shapes = [  ]
16/name = "DirtTopMid"
16/texture = ExtResource( 9 )
16/tex_offset = Vector2( 0, 0 )
16/modulate = Color( 1, 1, 1, 1 )
16/region = Rect2( 0, 0, 32, 32 )
16/is_autotile = false
16/occluder_offset = Vector2( 16, 16 )
16/navigation_offset = Vector2( 16, 16 )
16/shapes = [  ]
17/name = "SlopeSteepBit"
17/texture = ExtResource( 10 )
17/tex_offset = Vector2( 0, 0 )
17/modulate = Color( 1, 1, 1, 1 )
17/region = Rect2( 0, 0, 32, 32 )
17/is_autotile = false
17/occluder_offset = Vector2( 16, 16 )
17/navigation_offset = Vector2( 16, 16 )
17/shapes = [ {
"autotile_coord": Vector2( 0, 0 ),
"one_way": false,
"shape": SubResource( 6 ),
"shape_transform": Transform2D( 1, 0, 0, 1, 16, 16 )
} ]
18/name = "SlopeLaxBit"
18/texture = ExtResource( 11 )
18/tex_offset = Vector2( 0, 0 )
18/modulate = Color( 1, 1, 1, 1 )
18/region = Rect2( 0, 0, 32, 32 )
18/is_autotile = false
18/occluder_offset = Vector2( 16, 16 )
18/navigation_offset = Vector2( 16, 16 )
18/shapes = [ {
"autotile_coord": Vector2( 0, 0 ),
"one_way": false,
"shape": SubResource( 7 ),
"shape_transform": Transform2D( 1, 0, 0, 1, 16, 16 )
} ]
19/name = "SlopeSteep"
19/texture = ExtResource( 12 )
19/tex_offset = Vector2( 0, 0 )
19/modulate = Color( 1, 1, 1, 1 )
19/region = Rect2( 0, 0, 32, 32 )
19/is_autotile = false
19/occluder_offset = Vector2( 16, 16 )
19/navigation_offset = Vector2( 16, 16 )
19/shapes = [ {
"autotile_coord": Vector2( 0, 0 ),
"one_way": false,
"shape": SubResource( 8 ),
"shape_transform": Transform2D( 1, 0, 0, 1, 16, 16 )
} ]
20/name = "SlopeLax"
20/texture = ExtResource( 14 )
20/tex_offset = Vector2( 0, 0 )
20/modulate = Color( 1, 1, 1, 1 )
20/region = Rect2( 0, 0, 32, 32 )
20/is_autotile = false
20/occluder_offset = Vector2( 16, 16 )
20/navigation_offset = Vector2( 16, 16 )
20/shapes = [ {
"autotile_coord": Vector2( 0, 0 ),
"one_way": false,
"shape": SubResource( 9 ),
"shape_transform": Transform2D( 1, 0, 0, 1, 16, 16 )
} ]
21/name = "SlopeLaxer"
21/texture = ExtResource( 15 )
21/tex_offset = Vector2( 0, 0 )
21/modulate = Color( 1, 1, 1, 1 )
21/region = Rect2( 0, 0, 32, 32 )
21/is_autotile = false
21/occluder_offset = Vector2( 16, 16 )
21/navigation_offset = Vector2( 16, 16 )
21/shapes = [ {
"autotile_coord": Vector2( 0, 0 ),
"one_way": false,
"shape": SubResource( 10 ),
"shape_transform": Transform2D( 1, 0, 0, 1, 16, 16 )
} ]
22/name = "SlopeLaxerTile"
22/texture = ExtResource( 16 )
22/tex_offset = Vector2( 0, 0 )
22/modulate = Color( 1, 1, 1, 1 )
22/region = Rect2( 0, 0, 32, 32 )
22/is_autotile = false
22/occluder_offset = Vector2( 16, 16 )
22/navigation_offset = Vector2( 16, 16 )
22/shapes = [  ]
23/name = "DarkTile"
23/texture = ExtResource( 17 )
23/tex_offset = Vector2( 0, 0 )
23/modulate = Color( 1, 1, 1, 1 )
23/region = Rect2( 0, 0, 32, 32 )
23/is_autotile = false
23/occluder_offset = Vector2( 16, 16 )
23/navigation_offset = Vector2( 16, 16 )
23/shapes = [  ]
24/name = "SlopeSteepTile"
24/texture = ExtResource( 18 )
24/tex_offset = Vector2( 0, 0 )
24/modulate = Color( 1, 1, 1, 1 )
24/region = Rect2( 0, 0, 32, 32 )
24/is_autotile = false
24/occluder_offset = Vector2( 16, 16 )
24/navigation_offset = Vector2( 16, 16 )
24/shapes = [  ]
25/name = "DirtBottomEnd"
25/texture = ExtResource( 19 )
25/tex_offset = Vector2( 0, 0 )
25/modulate = Color( 1, 1, 1, 1 )
25/region = Rect2( 0, 0, 32, 32 )
25/is_autotile = false
25/occluder_offset = Vector2( 16, 16 )
25/navigation_offset = Vector2( 16, 16 )
25/shapes = [ {
"autotile_coord": Vector2( 0, 0 ),
"one_way": false,
"shape": SubResource( 15 ),
"shape_transform": Transform2D( 1, 0, 0, 1, 16, 16 )
} ]
26/name = "DirtBottomMid"
26/texture = ExtResource( 20 )
26/tex_offset = Vector2( 0, 0 )
26/modulate = Color( 1, 1, 1, 1 )
26/region = Rect2( 0, 0, 32, 32 )
26/is_autotile = false
26/occluder_offset = Vector2( 16, 16 )
26/navigation_offset = Vector2( 16, 16 )
26/shapes = [ {
"autotile_coord": Vector2( 0, 0 ),
"one_way": false,
"shape": SubResource( 16 ),
"shape_transform": Transform2D( 1, 0, 0, 1, 16, 16 )
} ]
27/name = "DirtSide"
27/texture = ExtResource( 21 )
27/tex_offset = Vector2( 0, 0 )
27/modulate = Color( 1, 1, 1, 1 )
27/region = Rect2( 0, 0, 32, 32 )
27/is_autotile = false
27/occluder_offset = Vector2( 16, 16 )
27/navigation_offset = Vector2( 16, 16 )
27/shapes = [ {
"autotile_coord": Vector2( 0, 0 ),
"one_way": false,
"shape": SubResource( 17 ),
"shape_transform": Transform2D( 1, 0, 0, 1, 16, 16 )
} ]

