[gd_scene load_steps=6 format=2]

[ext_resource path="res://Guy.gd" type="Script" id=1]
[ext_resource path="res://icon.png" type="Texture" id=2]
[ext_resource path="res://UserControl.gd" type="Script" id=3]

[sub_resource type="RectangleShape2D" id=1]

custom_solver_bias = 0.0
extents = Vector2( 15.8897, 20.5154 )

[sub_resource type="CircleShape2D" id=2]

custom_solver_bias = 0.0
radius = 80.7531

[node name="Guy" type="Node"]

script = ExtResource( 1 )

[node name="KinematicBody2D" type="KinematicBody2D" parent="." index="0"]

position = Vector2( 151.561, 65.5389 )
input_pickable = false
collision_layer = 1
collision_mask = 1
collision/safe_margin = 0.08

[node name="Feet" type="CollisionShape2D" parent="KinematicBody2D" index="0"]

position = Vector2( -1.34004, 0.195824 )
shape = SubResource( 1 )

[node name="Sprite" type="Sprite" parent="KinematicBody2D" index="1"]

position = Vector2( -1.33456, 0.315422 )
texture = ExtResource( 2 )

[node name="RangeBubble" type="Area2D" parent="KinematicBody2D" index="2"]

position = Vector2( -1.33456, 0.315422 )
input_pickable = true
gravity_vec = Vector2( 0, 1 )
gravity = 98.0
linear_damp = 0.1
angular_damp = 1.0
audio_bus_override = false
audio_bus_name = "Master"

[node name="CollisionShape2D" type="CollisionShape2D" parent="KinematicBody2D/RangeBubble" index="0"]

shape = SubResource( 2 )

[node name="UserControl" type="Node" parent="." index="1"]

script = ExtResource( 3 )
speed = 150


