[gd_resource type="SpriteFrames" load_steps=8 format=2]

[ext_resource path="res://art/animations/idle.png" type="Texture" id=1]
[ext_resource path="res://art/animations/run_animFrame1.png" type="Texture" id=2]
[ext_resource path="res://art/animations/run_animFrame2.png" type="Texture" id=3]
[ext_resource path="res://art/animations/run_animFrame3.png" type="Texture" id=4]
[ext_resource path="res://art/animations/run_animFrame4.png" type="Texture" id=5]
[ext_resource path="res://art/animations/run_animFrame5.png" type="Texture" id=6]
[ext_resource path="res://art/animations/run_animFrame6.png" type="Texture" id=7]

[resource]

animations = [ {
"frames": [ ExtResource( 1 ) ],
"loop": true,
"name": "idle",
"speed": 5.0
}, {
"frames": [ ExtResource( 2 ), ExtResource( 3 ), ExtResource( 4 ), ExtResource( 5 ), ExtResource( 6 ), ExtResource( 7 ) ],
"loop": true,
"name": "run",
"speed": 7.0
} ]
_sections_unfolded = [ "Resource" ]

